{
  "registers":
    [
      {
        "name": "reg_1",
        "init_val": 1,
        "type": "holding"
      },
      {
        "name": "reg_2",
        "init_val": 10,
        "type": "holding"
      },
      {
        "name": "reg_3",
        "init_val": 100,
        "type": "holding"
      }
    ]
}

